^C:\USERS\PETER\DESKTOP\SCHOOL\BROCK UNIVERSITY\YEAR 3\SEMESTER 1\COSC 3P98 - COMPUTER GRAPHICS\OPENGL\TEMPLATE-3P98-2010\TEMPLATE-3P98-2010\TEMPLATE-3P98-2010\SOURCE.C
C:\PROGRAM FILES (X86)\MICROSOFT VISUAL STUDIO 10.0\VC\BIN\1033\CLUI.DLL
C:\WINDOWS\GLOBALIZATION\SORTING\SORTDEFAULT.NLS
C:\WINDOWS\SYSTEM32\RSAENH.DLL
C:\PROGRAM FILES (X86)\MICROSOFT VISUAL STUDIO 10.0\COMMON7\IDE\MSPDBSRV.EXE
C:\WINDOWS\SYSTEM32\TZRES.DLL
C:\PROGRAM FILES (X86)\MICROSOFT VISUAL STUDIO 10.0\VC\INCLUDE\STDLIB.H
C:\PROGRAM FILES (X86)\MICROSOFT VISUAL STUDIO 10.0\VC\INCLUDE\CRTDEFS.H
C:\PROGRAM FILES (X86)\MICROSOFT VISUAL STUDIO 10.0\VC\INCLUDE\SAL.H
C:\PROGRAM FILES (X86)\MICROSOFT VISUAL STUDIO 10.0\VC\INCLUDE\CODEANALYSIS\SOURCEANNOTATIONS.H
C:\PROGRAM FILES (X86)\MICROSOFT VISUAL STUDIO 10.0\VC\INCLUDE\VADEFS.H
C:\PROGRAM FILES (X86)\MICROSOFT VISUAL STUDIO 10.0\VC\INCLUDE\LIMITS.H
C:\PROGRAM FILES (X86)\MICROSOFT VISUAL STUDIO 10.0\VC\INCLUDE\STDIO.H
C:\PROGRAM FILES (X86)\MICROSOFT VISUAL STUDIO 10.0\VC\INCLUDE\SWPRINTF.INL
C:\PROGRAM FILES (X86)\MICROSOFT VISUAL STUDIO 10.0\VC\INCLUDE\MALLOC.H
C:\USERS\PETER\DESKTOP\SCHOOL\BROCK UNIVERSITY\YEAR 3\SEMESTER 1\COSC 3P98 - COMPUTER GRAPHICS\OPENGL\TEMPLATE-3P98-2010\TEMPLATE-3P98-2010\TEMPLATE-3P98-2010\GL\FREEGLUT.H
C:\USERS\PETER\DESKTOP\SCHOOL\BROCK UNIVERSITY\YEAR 3\SEMESTER 1\COSC 3P98 - COMPUTER GRAPHICS\OPENGL\TEMPLATE-3P98-2010\TEMPLATE-3P98-2010\TEMPLATE-3P98-2010\GL\FREEGLUT_STD.H
C:\PROGRAM FILES (X86)\MICROSOFT SDKS\WINDOWS\V7.0A\INCLUDE\WINDOWS.H
C:\PROGRAM FILES (X86)\MICROSOFT SDKS\WINDOWS\V7.0A\INCLUDE\SDKDDKVER.H
C:\PROGRAM FILES (X86)\MICROSOFT VISUAL STUDIO 10.0\VC\INCLUDE\EXCPT.H
C:\PROGRAM FILES (X86)\MICROSOFT VISUAL STUDIO 10.0\VC\INCLUDE\STDARG.H
C:\PROGRAM FILES (X86)\MICROSOFT SDKS\WINDOWS\V7.0A\INCLUDE\WINDEF.H
C:\PROGRAM FILES (X86)\MICROSOFT SDKS\WINDOWS\V7.0A\INCLUDE\WINNT.H
C:\PROGRAM FILES (X86)\MICROSOFT VISUAL STUDIO 10.0\VC\INCLUDE\CTYPE.H
C:\PROGRAM FILES (X86)\MICROSOFT SDKS\WINDOWS\V7.0A\INCLUDE\SPECSTRINGS.H
C:\PROGRAM FILES (X86)\MICROSOFT SDKS\WINDOWS\V7.0A\INCLUDE\SAL_SUPP.H
C:\PROGRAM FILES (X86)\MICROSOFT SDKS\WINDOWS\V7.0A\INCLUDE\SPECSTRINGS_SUPP.H
C:\PROGRAM FILES (X86)\MICROSOFT SDKS\WINDOWS\V7.0A\INCLUDE\SPECSTRINGS_STRICT.H
C:\PROGRAM FILES (X86)\MICROSOFT SDKS\WINDOWS\V7.0A\INCLUDE\SPECSTRINGS_UNDEF.H
C:\PROGRAM FILES (X86)\MICROSOFT SDKS\WINDOWS\V7.0A\INCLUDE\DRIVERSPECS.H
C:\PROGRAM FILES (X86)\MICROSOFT SDKS\WINDOWS\V7.0A\INCLUDE\SDV_DRIVERSPECS.H
C:\PROGRAM FILES (X86)\MICROSOFT SDKS\WINDOWS\V7.0A\INCLUDE\KERNELSPECS.H
C:\PROGRAM FILES (X86)\MICROSOFT SDKS\WINDOWS\V7.0A\INCLUDE\BASETSD.H
C:\PROGRAM FILES (X86)\MICROSOFT SDKS\WINDOWS\V7.0A\INCLUDE\GUIDDEF.H
C:\PROGRAM FILES (X86)\MICROSOFT VISUAL STUDIO 10.0\VC\INCLUDE\STRING.H
C:\PROGRAM FILES (X86)\MICROSOFT SDKS\WINDOWS\V7.0A\INCLUDE\PSHPACK4.H
C:\PROGRAM FILES (X86)\MICROSOFT SDKS\WINDOWS\V7.0A\INCLUDE\POPPACK.H
C:\PROGRAM FILES (X86)\MICROSOFT SDKS\WINDOWS\V7.0A\INCLUDE\PSHPACK2.H
C:\PROGRAM FILES (X86)\MICROSOFT SDKS\WINDOWS\V7.0A\INCLUDE\PSHPACK8.H
C:\PROGRAM FILES (X86)\MICROSOFT SDKS\WINDOWS\V7.0A\INCLUDE\KTMTYPES.H
C:\PROGRAM FILES (X86)\MICROSOFT SDKS\WINDOWS\V7.0A\INCLUDE\WINBASE.H
C:\PROGRAM FILES (X86)\MICROSOFT SDKS\WINDOWS\V7.0A\INCLUDE\WINERROR.H
C:\PROGRAM FILES (X86)\MICROSOFT SDKS\WINDOWS\V7.0A\INCLUDE\WINGDI.H
C:\PROGRAM FILES (X86)\MICROSOFT SDKS\WINDOWS\V7.0A\INCLUDE\PSHPACK1.H
C:\PROGRAM FILES (X86)\MICROSOFT SDKS\WINDOWS\V7.0A\INCLUDE\WINUSER.H
C:\PROGRAM FILES (X86)\MICROSOFT SDKS\WINDOWS\V7.0A\INCLUDE\TVOUT.H
C:\PROGRAM FILES (X86)\MICROSOFT SDKS\WINDOWS\V7.0A\INCLUDE\WINNLS.H
C:\PROGRAM FILES (X86)\MICROSOFT SDKS\WINDOWS\V7.0A\INCLUDE\WINCON.H
C:\PROGRAM FILES (X86)\MICROSOFT SDKS\WINDOWS\V7.0A\INCLUDE\WINVER.H
C:\PROGRAM FILES (X86)\MICROSOFT SDKS\WINDOWS\V7.0A\INCLUDE\VERRSRC.H
C:\PROGRAM FILES (X86)\MICROSOFT SDKS\WINDOWS\V7.0A\INCLUDE\WINREG.H
C:\PROGRAM FILES (X86)\MICROSOFT SDKS\WINDOWS\V7.0A\INCLUDE\REASON.H
C:\PROGRAM FILES (X86)\MICROSOFT SDKS\WINDOWS\V7.0A\INCLUDE\WINNETWK.H
C:\PROGRAM FILES (X86)\MICROSOFT SDKS\WINDOWS\V7.0A\INCLUDE\WNNC.H
C:\PROGRAM FILES (X86)\MICROSOFT SDKS\WINDOWS\V7.0A\INCLUDE\STRALIGN.H
C:\PROGRAM FILES (X86)\MICROSOFT SDKS\WINDOWS\V7.0A\INCLUDE\WINSVC.H
C:\PROGRAM FILES (X86)\MICROSOFT SDKS\WINDOWS\V7.0A\INCLUDE\MCX.H
C:\PROGRAM FILES (X86)\MICROSOFT SDKS\WINDOWS\V7.0A\INCLUDE\IMM.H
C:\PROGRAM FILES (X86)\MICROSOFT SDKS\WINDOWS\V7.0A\INCLUDE\IME_CMODES.H
C:\PROGRAM FILES (X86)\MICROSOFT SDKS\WINDOWS\V7.0A\INCLUDE\GL\GL.H
C:\PROGRAM FILES (X86)\MICROSOFT SDKS\WINDOWS\V7.0A\INCLUDE\GL\GLU.H
C:\USERS\PETER\DESKTOP\SCHOOL\BROCK UNIVERSITY\YEAR 3\SEMESTER 1\COSC 3P98 - COMPUTER GRAPHICS\OPENGL\TEMPLATE-3P98-2010\TEMPLATE-3P98-2010\TEMPLATE-3P98-2010\GL\FREEGLUT_EXT.H
C:\USERS\PETER\DESKTOP\SCHOOL\BROCK UNIVERSITY\YEAR 3\SEMESTER 1\COSC 3P98 - COMPUTER GRAPHICS\OPENGL\TEMPLATE-3P98-2010\TEMPLATE-3P98-2010\TEMPLATE-3P98-2010\FREEIMAGE\FREEIMAGE.H
C:\PROGRAM FILES (X86)\MICROSOFT VISUAL STUDIO 10.0\VC\INCLUDE\WCHAR.H
C:\PROGRAM FILES (X86)\MICROSOFT VISUAL STUDIO 10.0\VC\INCLUDE\WTIME.INL
^C:\USERS\PETER\DESKTOP\SCHOOL\BROCK UNIVERSITY\YEAR 3\SEMESTER 1\COSC 3P98 - COMPUTER GRAPHICS\OPENGL\LOAD.C
C:\PROGRAM FILES (X86)\MICROSOFT VISUAL STUDIO 10.0\VC\BIN\1033\CLUI.DLL
C:\WINDOWS\GLOBALIZATION\SORTING\SORTDEFAULT.NLS
C:\WINDOWS\SYSTEM32\RSAENH.DLL
C:\PROGRAM FILES (X86)\MICROSOFT VISUAL STUDIO 10.0\COMMON7\IDE\MSPDBSRV.EXE
C:\WINDOWS\SYSTEM32\TZRES.DLL
C:\PROGRAM FILES (X86)\MICROSOFT VISUAL STUDIO 10.0\VC\INCLUDE\STDLIB.H
C:\PROGRAM FILES (X86)\MICROSOFT VISUAL STUDIO 10.0\VC\INCLUDE\CRTDEFS.H
C:\PROGRAM FILES (X86)\MICROSOFT VISUAL STUDIO 10.0\VC\INCLUDE\SAL.H
C:\PROGRAM FILES (X86)\MICROSOFT VISUAL STUDIO 10.0\VC\INCLUDE\CODEANALYSIS\SOURCEANNOTATIONS.H
C:\PROGRAM FILES (X86)\MICROSOFT VISUAL STUDIO 10.0\VC\INCLUDE\VADEFS.H
C:\PROGRAM FILES (X86)\MICROSOFT VISUAL STUDIO 10.0\VC\INCLUDE\LIMITS.H
C:\USERS\PETER\DESKTOP\SCHOOL\BROCK UNIVERSITY\YEAR 3\SEMESTER 1\COSC 3P98 - COMPUTER GRAPHICS\OPENGL\TEMPLATE-3P98-2010\TEMPLATE-3P98-2010\TEMPLATE-3P98-2010\GL\FREEGLUT.H
C:\USERS\PETER\DESKTOP\SCHOOL\BROCK UNIVERSITY\YEAR 3\SEMESTER 1\COSC 3P98 - COMPUTER GRAPHICS\OPENGL\TEMPLATE-3P98-2010\TEMPLATE-3P98-2010\TEMPLATE-3P98-2010\GL\FREEGLUT_STD.H
C:\PROGRAM FILES (X86)\MICROSOFT SDKS\WINDOWS\V7.0A\INCLUDE\WINDOWS.H
C:\PROGRAM FILES (X86)\MICROSOFT SDKS\WINDOWS\V7.0A\INCLUDE\SDKDDKVER.H
C:\PROGRAM FILES (X86)\MICROSOFT VISUAL STUDIO 10.0\VC\INCLUDE\EXCPT.H
C:\PROGRAM FILES (X86)\MICROSOFT VISUAL STUDIO 10.0\VC\INCLUDE\STDARG.H
C:\PROGRAM FILES (X86)\MICROSOFT SDKS\WINDOWS\V7.0A\INCLUDE\WINDEF.H
C:\PROGRAM FILES (X86)\MICROSOFT SDKS\WINDOWS\V7.0A\INCLUDE\WINNT.H
C:\PROGRAM FILES (X86)\MICROSOFT VISUAL STUDIO 10.0\VC\INCLUDE\CTYPE.H
C:\PROGRAM FILES (X86)\MICROSOFT SDKS\WINDOWS\V7.0A\INCLUDE\SPECSTRINGS.H
C:\PROGRAM FILES (X86)\MICROSOFT SDKS\WINDOWS\V7.0A\INCLUDE\SAL_SUPP.H
C:\PROGRAM FILES (X86)\MICROSOFT SDKS\WINDOWS\V7.0A\INCLUDE\SPECSTRINGS_SUPP.H
C:\PROGRAM FILES (X86)\MICROSOFT SDKS\WINDOWS\V7.0A\INCLUDE\SPECSTRINGS_STRICT.H
C:\PROGRAM FILES (X86)\MICROSOFT SDKS\WINDOWS\V7.0A\INCLUDE\SPECSTRINGS_UNDEF.H
C:\PROGRAM FILES (X86)\MICROSOFT SDKS\WINDOWS\V7.0A\INCLUDE\DRIVERSPECS.H
C:\PROGRAM FILES (X86)\MICROSOFT SDKS\WINDOWS\V7.0A\INCLUDE\SDV_DRIVERSPECS.H
C:\PROGRAM FILES (X86)\MICROSOFT SDKS\WINDOWS\V7.0A\INCLUDE\KERNELSPECS.H
C:\PROGRAM FILES (X86)\MICROSOFT SDKS\WINDOWS\V7.0A\INCLUDE\BASETSD.H
C:\PROGRAM FILES (X86)\MICROSOFT SDKS\WINDOWS\V7.0A\INCLUDE\GUIDDEF.H
C:\PROGRAM FILES (X86)\MICROSOFT VISUAL STUDIO 10.0\VC\INCLUDE\STRING.H
C:\PROGRAM FILES (X86)\MICROSOFT SDKS\WINDOWS\V7.0A\INCLUDE\PSHPACK4.H
C:\PROGRAM FILES (X86)\MICROSOFT SDKS\WINDOWS\V7.0A\INCLUDE\POPPACK.H
C:\PROGRAM FILES (X86)\MICROSOFT SDKS\WINDOWS\V7.0A\INCLUDE\PSHPACK2.H
C:\PROGRAM FILES (X86)\MICROSOFT SDKS\WINDOWS\V7.0A\INCLUDE\PSHPACK8.H
C:\PROGRAM FILES (X86)\MICROSOFT SDKS\WINDOWS\V7.0A\INCLUDE\KTMTYPES.H
C:\PROGRAM FILES (X86)\MICROSOFT SDKS\WINDOWS\V7.0A\INCLUDE\WINBASE.H
C:\PROGRAM FILES (X86)\MICROSOFT SDKS\WINDOWS\V7.0A\INCLUDE\WINERROR.H
C:\PROGRAM FILES (X86)\MICROSOFT SDKS\WINDOWS\V7.0A\INCLUDE\WINGDI.H
C:\PROGRAM FILES (X86)\MICROSOFT SDKS\WINDOWS\V7.0A\INCLUDE\PSHPACK1.H
C:\PROGRAM FILES (X86)\MICROSOFT SDKS\WINDOWS\V7.0A\INCLUDE\WINUSER.H
C:\PROGRAM FILES (X86)\MICROSOFT SDKS\WINDOWS\V7.0A\INCLUDE\TVOUT.H
C:\PROGRAM FILES (X86)\MICROSOFT SDKS\WINDOWS\V7.0A\INCLUDE\WINNLS.H
C:\PROGRAM FILES (X86)\MICROSOFT SDKS\WINDOWS\V7.0A\INCLUDE\WINCON.H
C:\PROGRAM FILES (X86)\MICROSOFT SDKS\WINDOWS\V7.0A\INCLUDE\WINVER.H
C:\PROGRAM FILES (X86)\MICROSOFT SDKS\WINDOWS\V7.0A\INCLUDE\VERRSRC.H
C:\PROGRAM FILES (X86)\MICROSOFT SDKS\WINDOWS\V7.0A\INCLUDE\WINREG.H
C:\PROGRAM FILES (X86)\MICROSOFT SDKS\WINDOWS\V7.0A\INCLUDE\REASON.H
C:\PROGRAM FILES (X86)\MICROSOFT SDKS\WINDOWS\V7.0A\INCLUDE\WINNETWK.H
C:\PROGRAM FILES (X86)\MICROSOFT SDKS\WINDOWS\V7.0A\INCLUDE\WNNC.H
C:\PROGRAM FILES (X86)\MICROSOFT SDKS\WINDOWS\V7.0A\INCLUDE\STRALIGN.H
C:\PROGRAM FILES (X86)\MICROSOFT SDKS\WINDOWS\V7.0A\INCLUDE\WINSVC.H
C:\PROGRAM FILES (X86)\MICROSOFT SDKS\WINDOWS\V7.0A\INCLUDE\MCX.H
C:\PROGRAM FILES (X86)\MICROSOFT SDKS\WINDOWS\V7.0A\INCLUDE\IMM.H
C:\PROGRAM FILES (X86)\MICROSOFT SDKS\WINDOWS\V7.0A\INCLUDE\IME_CMODES.H
C:\PROGRAM FILES (X86)\MICROSOFT SDKS\WINDOWS\V7.0A\INCLUDE\GL\GL.H
C:\PROGRAM FILES (X86)\MICROSOFT SDKS\WINDOWS\V7.0A\INCLUDE\GL\GLU.H
C:\USERS\PETER\DESKTOP\SCHOOL\BROCK UNIVERSITY\YEAR 3\SEMESTER 1\COSC 3P98 - COMPUTER GRAPHICS\OPENGL\TEMPLATE-3P98-2010\TEMPLATE-3P98-2010\TEMPLATE-3P98-2010\GL\FREEGLUT_EXT.H
C:\USERS\PETER\DESKTOP\SCHOOL\BROCK UNIVERSITY\YEAR 3\SEMESTER 1\COSC 3P98 - COMPUTER GRAPHICS\OPENGL\TEMPLATE-3P98-2010\TEMPLATE-3P98-2010\TEMPLATE-3P98-2010\FREEIMAGE\FREEIMAGE.H
C:\PROGRAM FILES (X86)\MICROSOFT VISUAL STUDIO 10.0\VC\INCLUDE\WCHAR.H
C:\PROGRAM FILES (X86)\MICROSOFT VISUAL STUDIO 10.0\VC\INCLUDE\SWPRINTF.INL
C:\PROGRAM FILES (X86)\MICROSOFT VISUAL STUDIO 10.0\VC\INCLUDE\WTIME.INL
C:\PROGRAM FILES (X86)\MICROSOFT VISUAL STUDIO 10.0\VC\INCLUDE\STDIO.H
C:\PROGRAM FILES (X86)\MICROSOFT VISUAL STUDIO 10.0\VC\INCLUDE\MALLOC.H
^C:\USERS\PETER\DESKTOP\SCHOOL\BROCK UNIVERSITY\YEAR 3\SEMESTER 1\COSC 3P98 - COMPUTER GRAPHICS\OPENGL\TEMPLATE-3P98-2010\TEMPLATE-3P98-2010\TEMPLATE-3P98-2010\LOAD.C
C:\PROGRAM FILES (X86)\MICROSOFT VISUAL STUDIO 10.0\VC\BIN\1033\CLUI.DLL
C:\WINDOWS\GLOBALIZATION\SORTING\SORTDEFAULT.NLS
C:\WINDOWS\SYSTEM32\RSAENH.DLL
C:\PROGRAM FILES (X86)\MICROSOFT VISUAL STUDIO 10.0\COMMON7\IDE\MSPDBSRV.EXE
C:\WINDOWS\SYSTEM32\TZRES.DLL
C:\PROGRAM FILES (X86)\MICROSOFT VISUAL STUDIO 10.0\VC\INCLUDE\STDLIB.H
C:\PROGRAM FILES (X86)\MICROSOFT VISUAL STUDIO 10.0\VC\INCLUDE\CRTDEFS.H
C:\PROGRAM FILES (X86)\MICROSOFT VISUAL STUDIO 10.0\VC\INCLUDE\SAL.H
C:\PROGRAM FILES (X86)\MICROSOFT VISUAL STUDIO 10.0\VC\INCLUDE\CODEANALYSIS\SOURCEANNOTATIONS.H
C:\PROGRAM FILES (X86)\MICROSOFT VISUAL STUDIO 10.0\VC\INCLUDE\VADEFS.H
C:\PROGRAM FILES (X86)\MICROSOFT VISUAL STUDIO 10.0\VC\INCLUDE\LIMITS.H
C:\USERS\PETER\DESKTOP\SCHOOL\BROCK UNIVERSITY\YEAR 3\SEMESTER 1\COSC 3P98 - COMPUTER GRAPHICS\OPENGL\TEMPLATE-3P98-2010\TEMPLATE-3P98-2010\TEMPLATE-3P98-2010\GL\FREEGLUT.H
C:\USERS\PETER\DESKTOP\SCHOOL\BROCK UNIVERSITY\YEAR 3\SEMESTER 1\COSC 3P98 - COMPUTER GRAPHICS\OPENGL\TEMPLATE-3P98-2010\TEMPLATE-3P98-2010\TEMPLATE-3P98-2010\GL\FREEGLUT_STD.H
C:\PROGRAM FILES (X86)\MICROSOFT SDKS\WINDOWS\V7.0A\INCLUDE\WINDOWS.H
C:\PROGRAM FILES (X86)\MICROSOFT SDKS\WINDOWS\V7.0A\INCLUDE\SDKDDKVER.H
C:\PROGRAM FILES (X86)\MICROSOFT VISUAL STUDIO 10.0\VC\INCLUDE\EXCPT.H
C:\PROGRAM FILES (X86)\MICROSOFT VISUAL STUDIO 10.0\VC\INCLUDE\STDARG.H
C:\PROGRAM FILES (X86)\MICROSOFT SDKS\WINDOWS\V7.0A\INCLUDE\WINDEF.H
C:\PROGRAM FILES (X86)\MICROSOFT SDKS\WINDOWS\V7.0A\INCLUDE\WINNT.H
C:\PROGRAM FILES (X86)\MICROSOFT VISUAL STUDIO 10.0\VC\INCLUDE\CTYPE.H
C:\PROGRAM FILES (X86)\MICROSOFT SDKS\WINDOWS\V7.0A\INCLUDE\SPECSTRINGS.H
C:\PROGRAM FILES (X86)\MICROSOFT SDKS\WINDOWS\V7.0A\INCLUDE\SAL_SUPP.H
C:\PROGRAM FILES (X86)\MICROSOFT SDKS\WINDOWS\V7.0A\INCLUDE\SPECSTRINGS_SUPP.H
C:\PROGRAM FILES (X86)\MICROSOFT SDKS\WINDOWS\V7.0A\INCLUDE\SPECSTRINGS_STRICT.H
C:\PROGRAM FILES (X86)\MICROSOFT SDKS\WINDOWS\V7.0A\INCLUDE\SPECSTRINGS_UNDEF.H
C:\PROGRAM FILES (X86)\MICROSOFT SDKS\WINDOWS\V7.0A\INCLUDE\DRIVERSPECS.H
C:\PROGRAM FILES (X86)\MICROSOFT SDKS\WINDOWS\V7.0A\INCLUDE\SDV_DRIVERSPECS.H
C:\PROGRAM FILES (X86)\MICROSOFT SDKS\WINDOWS\V7.0A\INCLUDE\KERNELSPECS.H
C:\PROGRAM FILES (X86)\MICROSOFT SDKS\WINDOWS\V7.0A\INCLUDE\BASETSD.H
C:\PROGRAM FILES (X86)\MICROSOFT SDKS\WINDOWS\V7.0A\INCLUDE\GUIDDEF.H
C:\PROGRAM FILES (X86)\MICROSOFT VISUAL STUDIO 10.0\VC\INCLUDE\STRING.H
C:\PROGRAM FILES (X86)\MICROSOFT SDKS\WINDOWS\V7.0A\INCLUDE\PSHPACK4.H
C:\PROGRAM FILES (X86)\MICROSOFT SDKS\WINDOWS\V7.0A\INCLUDE\POPPACK.H
C:\PROGRAM FILES (X86)\MICROSOFT SDKS\WINDOWS\V7.0A\INCLUDE\PSHPACK2.H
C:\PROGRAM FILES (X86)\MICROSOFT SDKS\WINDOWS\V7.0A\INCLUDE\PSHPACK8.H
C:\PROGRAM FILES (X86)\MICROSOFT SDKS\WINDOWS\V7.0A\INCLUDE\KTMTYPES.H
C:\PROGRAM FILES (X86)\MICROSOFT SDKS\WINDOWS\V7.0A\INCLUDE\WINBASE.H
C:\PROGRAM FILES (X86)\MICROSOFT SDKS\WINDOWS\V7.0A\INCLUDE\WINERROR.H
C:\PROGRAM FILES (X86)\MICROSOFT SDKS\WINDOWS\V7.0A\INCLUDE\WINGDI.H
C:\PROGRAM FILES (X86)\MICROSOFT SDKS\WINDOWS\V7.0A\INCLUDE\PSHPACK1.H
C:\PROGRAM FILES (X86)\MICROSOFT SDKS\WINDOWS\V7.0A\INCLUDE\WINUSER.H
C:\PROGRAM FILES (X86)\MICROSOFT SDKS\WINDOWS\V7.0A\INCLUDE\TVOUT.H
C:\PROGRAM FILES (X86)\MICROSOFT SDKS\WINDOWS\V7.0A\INCLUDE\WINNLS.H
C:\PROGRAM FILES (X86)\MICROSOFT SDKS\WINDOWS\V7.0A\INCLUDE\WINCON.H
C:\PROGRAM FILES (X86)\MICROSOFT SDKS\WINDOWS\V7.0A\INCLUDE\WINVER.H
C:\PROGRAM FILES (X86)\MICROSOFT SDKS\WINDOWS\V7.0A\INCLUDE\VERRSRC.H
C:\PROGRAM FILES (X86)\MICROSOFT SDKS\WINDOWS\V7.0A\INCLUDE\WINREG.H
C:\PROGRAM FILES (X86)\MICROSOFT SDKS\WINDOWS\V7.0A\INCLUDE\REASON.H
C:\PROGRAM FILES (X86)\MICROSOFT SDKS\WINDOWS\V7.0A\INCLUDE\WINNETWK.H
C:\PROGRAM FILES (X86)\MICROSOFT SDKS\WINDOWS\V7.0A\INCLUDE\WNNC.H
C:\PROGRAM FILES (X86)\MICROSOFT SDKS\WINDOWS\V7.0A\INCLUDE\STRALIGN.H
C:\PROGRAM FILES (X86)\MICROSOFT SDKS\WINDOWS\V7.0A\INCLUDE\WINSVC.H
C:\PROGRAM FILES (X86)\MICROSOFT SDKS\WINDOWS\V7.0A\INCLUDE\MCX.H
C:\PROGRAM FILES (X86)\MICROSOFT SDKS\WINDOWS\V7.0A\INCLUDE\IMM.H
C:\PROGRAM FILES (X86)\MICROSOFT SDKS\WINDOWS\V7.0A\INCLUDE\IME_CMODES.H
C:\PROGRAM FILES (X86)\MICROSOFT SDKS\WINDOWS\V7.0A\INCLUDE\GL\GL.H
C:\PROGRAM FILES (X86)\MICROSOFT SDKS\WINDOWS\V7.0A\INCLUDE\GL\GLU.H
C:\USERS\PETER\DESKTOP\SCHOOL\BROCK UNIVERSITY\YEAR 3\SEMESTER 1\COSC 3P98 - COMPUTER GRAPHICS\OPENGL\TEMPLATE-3P98-2010\TEMPLATE-3P98-2010\TEMPLATE-3P98-2010\GL\FREEGLUT_EXT.H
C:\USERS\PETER\DESKTOP\SCHOOL\BROCK UNIVERSITY\YEAR 3\SEMESTER 1\COSC 3P98 - COMPUTER GRAPHICS\OPENGL\TEMPLATE-3P98-2010\TEMPLATE-3P98-2010\TEMPLATE-3P98-2010\FREEIMAGE\FREEIMAGE.H
C:\PROGRAM FILES (X86)\MICROSOFT VISUAL STUDIO 10.0\VC\INCLUDE\WCHAR.H
C:\PROGRAM FILES (X86)\MICROSOFT VISUAL STUDIO 10.0\VC\INCLUDE\SWPRINTF.INL
C:\PROGRAM FILES (X86)\MICROSOFT VISUAL STUDIO 10.0\VC\INCLUDE\WTIME.INL
C:\PROGRAM FILES (X86)\MICROSOFT VISUAL STUDIO 10.0\VC\INCLUDE\STDIO.H
C:\PROGRAM FILES (X86)\MICROSOFT VISUAL STUDIO 10.0\VC\INCLUDE\MALLOC.H
^C:\USERS\PETER\DESKTOP\SCHOOL\BROCK UNIVERSITY\YEAR 3\SEMESTER 1\COSC 3P98 - COMPUTER GRAPHICS\ASSIGNMENT 1\TEMPLATE-3P98-2010\TEMPLATE-3P98-2010\TEMPLATE-3P98-2010\SOURCE.C
C:\PROGRAM FILES (X86)\MICROSOFT VISUAL STUDIO 10.0\VC\INCLUDE\STDLIB.H
C:\PROGRAM FILES (X86)\MICROSOFT VISUAL STUDIO 10.0\VC\INCLUDE\CRTDEFS.H
C:\PROGRAM FILES (X86)\MICROSOFT VISUAL STUDIO 10.0\VC\INCLUDE\SAL.H
C:\PROGRAM FILES (X86)\MICROSOFT VISUAL STUDIO 10.0\VC\INCLUDE\CODEANALYSIS\SOURCEANNOTATIONS.H
C:\PROGRAM FILES (X86)\MICROSOFT VISUAL STUDIO 10.0\VC\INCLUDE\VADEFS.H
C:\PROGRAM FILES (X86)\MICROSOFT VISUAL STUDIO 10.0\VC\INCLUDE\LIMITS.H
C:\PROGRAM FILES (X86)\MICROSOFT VISUAL STUDIO 10.0\VC\INCLUDE\STDIO.H
C:\PROGRAM FILES (X86)\MICROSOFT VISUAL STUDIO 10.0\VC\INCLUDE\SWPRINTF.INL
C:\PROGRAM FILES (X86)\MICROSOFT VISUAL STUDIO 10.0\VC\INCLUDE\MALLOC.H
C:\USERS\PETER\DESKTOP\SCHOOL\BROCK UNIVERSITY\YEAR 3\SEMESTER 1\COSC 3P98 - COMPUTER GRAPHICS\ASSIGNMENT 1\TEMPLATE-3P98-2010\TEMPLATE-3P98-2010\TEMPLATE-3P98-2010\GL\FREEGLUT.H
C:\USERS\PETER\DESKTOP\SCHOOL\BROCK UNIVERSITY\YEAR 3\SEMESTER 1\COSC 3P98 - COMPUTER GRAPHICS\ASSIGNMENT 1\TEMPLATE-3P98-2010\TEMPLATE-3P98-2010\TEMPLATE-3P98-2010\GL\FREEGLUT_STD.H
C:\PROGRAM FILES (X86)\MICROSOFT SDKS\WINDOWS\V7.0A\INCLUDE\WINDOWS.H
C:\PROGRAM FILES (X86)\MICROSOFT SDKS\WINDOWS\V7.0A\INCLUDE\SDKDDKVER.H
C:\PROGRAM FILES (X86)\MICROSOFT VISUAL STUDIO 10.0\VC\INCLUDE\EXCPT.H
C:\PROGRAM FILES (X86)\MICROSOFT VISUAL STUDIO 10.0\VC\INCLUDE\STDARG.H
C:\PROGRAM FILES (X86)\MICROSOFT SDKS\WINDOWS\V7.0A\INCLUDE\WINDEF.H
C:\PROGRAM FILES (X86)\MICROSOFT SDKS\WINDOWS\V7.0A\INCLUDE\WINNT.H
C:\PROGRAM FILES (X86)\MICROSOFT VISUAL STUDIO 10.0\VC\INCLUDE\CTYPE.H
C:\PROGRAM FILES (X86)\MICROSOFT SDKS\WINDOWS\V7.0A\INCLUDE\SPECSTRINGS.H
C:\PROGRAM FILES (X86)\MICROSOFT SDKS\WINDOWS\V7.0A\INCLUDE\SAL_SUPP.H
C:\PROGRAM FILES (X86)\MICROSOFT SDKS\WINDOWS\V7.0A\INCLUDE\SPECSTRINGS_SUPP.H
C:\PROGRAM FILES (X86)\MICROSOFT SDKS\WINDOWS\V7.0A\INCLUDE\SPECSTRINGS_STRICT.H
C:\PROGRAM FILES (X86)\MICROSOFT SDKS\WINDOWS\V7.0A\INCLUDE\SPECSTRINGS_UNDEF.H
C:\PROGRAM FILES (X86)\MICROSOFT SDKS\WINDOWS\V7.0A\INCLUDE\DRIVERSPECS.H
C:\PROGRAM FILES (X86)\MICROSOFT SDKS\WINDOWS\V7.0A\INCLUDE\SDV_DRIVERSPECS.H
C:\PROGRAM FILES (X86)\MICROSOFT SDKS\WINDOWS\V7.0A\INCLUDE\KERNELSPECS.H
C:\PROGRAM FILES (X86)\MICROSOFT SDKS\WINDOWS\V7.0A\INCLUDE\BASETSD.H
C:\PROGRAM FILES (X86)\MICROSOFT SDKS\WINDOWS\V7.0A\INCLUDE\GUIDDEF.H
C:\PROGRAM FILES (X86)\MICROSOFT VISUAL STUDIO 10.0\VC\INCLUDE\STRING.H
C:\PROGRAM FILES (X86)\MICROSOFT SDKS\WINDOWS\V7.0A\INCLUDE\PSHPACK4.H
C:\PROGRAM FILES (X86)\MICROSOFT SDKS\WINDOWS\V7.0A\INCLUDE\POPPACK.H
C:\PROGRAM FILES (X86)\MICROSOFT SDKS\WINDOWS\V7.0A\INCLUDE\PSHPACK2.H
C:\PROGRAM FILES (X86)\MICROSOFT SDKS\WINDOWS\V7.0A\INCLUDE\PSHPACK8.H
C:\PROGRAM FILES (X86)\MICROSOFT SDKS\WINDOWS\V7.0A\INCLUDE\KTMTYPES.H
C:\PROGRAM FILES (X86)\MICROSOFT SDKS\WINDOWS\V7.0A\INCLUDE\WINBASE.H
C:\PROGRAM FILES (X86)\MICROSOFT SDKS\WINDOWS\V7.0A\INCLUDE\WINERROR.H
C:\PROGRAM FILES (X86)\MICROSOFT SDKS\WINDOWS\V7.0A\INCLUDE\WINGDI.H
C:\PROGRAM FILES (X86)\MICROSOFT SDKS\WINDOWS\V7.0A\INCLUDE\PSHPACK1.H
C:\PROGRAM FILES (X86)\MICROSOFT SDKS\WINDOWS\V7.0A\INCLUDE\WINUSER.H
C:\PROGRAM FILES (X86)\MICROSOFT SDKS\WINDOWS\V7.0A\INCLUDE\TVOUT.H
C:\PROGRAM FILES (X86)\MICROSOFT SDKS\WINDOWS\V7.0A\INCLUDE\WINNLS.H
C:\PROGRAM FILES (X86)\MICROSOFT SDKS\WINDOWS\V7.0A\INCLUDE\WINCON.H
C:\PROGRAM FILES (X86)\MICROSOFT SDKS\WINDOWS\V7.0A\INCLUDE\WINVER.H
C:\PROGRAM FILES (X86)\MICROSOFT SDKS\WINDOWS\V7.0A\INCLUDE\VERRSRC.H
C:\PROGRAM FILES (X86)\MICROSOFT SDKS\WINDOWS\V7.0A\INCLUDE\WINREG.H
C:\PROGRAM FILES (X86)\MICROSOFT SDKS\WINDOWS\V7.0A\INCLUDE\REASON.H
C:\PROGRAM FILES (X86)\MICROSOFT SDKS\WINDOWS\V7.0A\INCLUDE\WINNETWK.H
C:\PROGRAM FILES (X86)\MICROSOFT SDKS\WINDOWS\V7.0A\INCLUDE\WNNC.H
C:\PROGRAM FILES (X86)\MICROSOFT SDKS\WINDOWS\V7.0A\INCLUDE\STRALIGN.H
C:\PROGRAM FILES (X86)\MICROSOFT SDKS\WINDOWS\V7.0A\INCLUDE\WINSVC.H
C:\PROGRAM FILES (X86)\MICROSOFT SDKS\WINDOWS\V7.0A\INCLUDE\MCX.H
C:\PROGRAM FILES (X86)\MICROSOFT SDKS\WINDOWS\V7.0A\INCLUDE\IMM.H
C:\PROGRAM FILES (X86)\MICROSOFT SDKS\WINDOWS\V7.0A\INCLUDE\IME_CMODES.H
C:\PROGRAM FILES (X86)\MICROSOFT SDKS\WINDOWS\V7.0A\INCLUDE\GL\GL.H
C:\PROGRAM FILES (X86)\MICROSOFT SDKS\WINDOWS\V7.0A\INCLUDE\GL\GLU.H
C:\USERS\PETER\DESKTOP\SCHOOL\BROCK UNIVERSITY\YEAR 3\SEMESTER 1\COSC 3P98 - COMPUTER GRAPHICS\ASSIGNMENT 1\TEMPLATE-3P98-2010\TEMPLATE-3P98-2010\TEMPLATE-3P98-2010\GL\FREEGLUT_EXT.H
C:\USERS\PETER\DESKTOP\SCHOOL\BROCK UNIVERSITY\YEAR 3\SEMESTER 1\COSC 3P98 - COMPUTER GRAPHICS\ASSIGNMENT 1\TEMPLATE-3P98-2010\TEMPLATE-3P98-2010\TEMPLATE-3P98-2010\FREEIMAGE\FREEIMAGE.H
C:\PROGRAM FILES (X86)\MICROSOFT VISUAL STUDIO 10.0\VC\INCLUDE\WCHAR.H
C:\PROGRAM FILES (X86)\MICROSOFT VISUAL STUDIO 10.0\VC\INCLUDE\WTIME.INL
^C:\USERS\PETER\DESKTOP\SCHOOL\BROCK UNIVERSITY\YEAR 3\SEMESTER 1\COSC 3P98 - COMPUTER GRAPHICS\ASSIGNMENT 1\TEMPLATE-3P98-2010\TEMPLATE-3P98-2010\TEMPLATE-3P98-2010\LOAD.C
C:\PROGRAM FILES (X86)\MICROSOFT VISUAL STUDIO 10.0\VC\INCLUDE\STDLIB.H
C:\PROGRAM FILES (X86)\MICROSOFT VISUAL STUDIO 10.0\VC\INCLUDE\CRTDEFS.H
C:\PROGRAM FILES (X86)\MICROSOFT VISUAL STUDIO 10.0\VC\INCLUDE\SAL.H
C:\PROGRAM FILES (X86)\MICROSOFT VISUAL STUDIO 10.0\VC\INCLUDE\CODEANALYSIS\SOURCEANNOTATIONS.H
C:\PROGRAM FILES (X86)\MICROSOFT VISUAL STUDIO 10.0\VC\INCLUDE\VADEFS.H
C:\PROGRAM FILES (X86)\MICROSOFT VISUAL STUDIO 10.0\VC\INCLUDE\LIMITS.H
C:\USERS\PETER\DESKTOP\SCHOOL\BROCK UNIVERSITY\YEAR 3\SEMESTER 1\COSC 3P98 - COMPUTER GRAPHICS\ASSIGNMENT 1\TEMPLATE-3P98-2010\TEMPLATE-3P98-2010\TEMPLATE-3P98-2010\GL\FREEGLUT.H
C:\USERS\PETER\DESKTOP\SCHOOL\BROCK UNIVERSITY\YEAR 3\SEMESTER 1\COSC 3P98 - COMPUTER GRAPHICS\ASSIGNMENT 1\TEMPLATE-3P98-2010\TEMPLATE-3P98-2010\TEMPLATE-3P98-2010\GL\FREEGLUT_STD.H
C:\PROGRAM FILES (X86)\MICROSOFT SDKS\WINDOWS\V7.0A\INCLUDE\WINDOWS.H
C:\PROGRAM FILES (X86)\MICROSOFT SDKS\WINDOWS\V7.0A\INCLUDE\SDKDDKVER.H
C:\PROGRAM FILES (X86)\MICROSOFT VISUAL STUDIO 10.0\VC\INCLUDE\EXCPT.H
C:\PROGRAM FILES (X86)\MICROSOFT VISUAL STUDIO 10.0\VC\INCLUDE\STDARG.H
C:\PROGRAM FILES (X86)\MICROSOFT SDKS\WINDOWS\V7.0A\INCLUDE\WINDEF.H
C:\PROGRAM FILES (X86)\MICROSOFT SDKS\WINDOWS\V7.0A\INCLUDE\WINNT.H
C:\PROGRAM FILES (X86)\MICROSOFT VISUAL STUDIO 10.0\VC\INCLUDE\CTYPE.H
C:\PROGRAM FILES (X86)\MICROSOFT SDKS\WINDOWS\V7.0A\INCLUDE\SPECSTRINGS.H
C:\PROGRAM FILES (X86)\MICROSOFT SDKS\WINDOWS\V7.0A\INCLUDE\SAL_SUPP.H
C:\PROGRAM FILES (X86)\MICROSOFT SDKS\WINDOWS\V7.0A\INCLUDE\SPECSTRINGS_SUPP.H
C:\PROGRAM FILES (X86)\MICROSOFT SDKS\WINDOWS\V7.0A\INCLUDE\SPECSTRINGS_STRICT.H
C:\PROGRAM FILES (X86)\MICROSOFT SDKS\WINDOWS\V7.0A\INCLUDE\SPECSTRINGS_UNDEF.H
C:\PROGRAM FILES (X86)\MICROSOFT SDKS\WINDOWS\V7.0A\INCLUDE\DRIVERSPECS.H
C:\PROGRAM FILES (X86)\MICROSOFT SDKS\WINDOWS\V7.0A\INCLUDE\SDV_DRIVERSPECS.H
C:\PROGRAM FILES (X86)\MICROSOFT SDKS\WINDOWS\V7.0A\INCLUDE\KERNELSPECS.H
C:\PROGRAM FILES (X86)\MICROSOFT SDKS\WINDOWS\V7.0A\INCLUDE\BASETSD.H
C:\PROGRAM FILES (X86)\MICROSOFT SDKS\WINDOWS\V7.0A\INCLUDE\GUIDDEF.H
C:\PROGRAM FILES (X86)\MICROSOFT VISUAL STUDIO 10.0\VC\INCLUDE\STRING.H
C:\PROGRAM FILES (X86)\MICROSOFT SDKS\WINDOWS\V7.0A\INCLUDE\PSHPACK4.H
C:\PROGRAM FILES (X86)\MICROSOFT SDKS\WINDOWS\V7.0A\INCLUDE\POPPACK.H
C:\PROGRAM FILES (X86)\MICROSOFT SDKS\WINDOWS\V7.0A\INCLUDE\PSHPACK2.H
C:\PROGRAM FILES (X86)\MICROSOFT SDKS\WINDOWS\V7.0A\INCLUDE\PSHPACK8.H
C:\PROGRAM FILES (X86)\MICROSOFT SDKS\WINDOWS\V7.0A\INCLUDE\KTMTYPES.H
C:\PROGRAM FILES (X86)\MICROSOFT SDKS\WINDOWS\V7.0A\INCLUDE\WINBASE.H
C:\PROGRAM FILES (X86)\MICROSOFT SDKS\WINDOWS\V7.0A\INCLUDE\WINERROR.H
C:\PROGRAM FILES (X86)\MICROSOFT SDKS\WINDOWS\V7.0A\INCLUDE\WINGDI.H
C:\PROGRAM FILES (X86)\MICROSOFT SDKS\WINDOWS\V7.0A\INCLUDE\PSHPACK1.H
C:\PROGRAM FILES (X86)\MICROSOFT SDKS\WINDOWS\V7.0A\INCLUDE\WINUSER.H
C:\PROGRAM FILES (X86)\MICROSOFT SDKS\WINDOWS\V7.0A\INCLUDE\TVOUT.H
C:\PROGRAM FILES (X86)\MICROSOFT SDKS\WINDOWS\V7.0A\INCLUDE\WINNLS.H
C:\PROGRAM FILES (X86)\MICROSOFT SDKS\WINDOWS\V7.0A\INCLUDE\WINCON.H
C:\PROGRAM FILES (X86)\MICROSOFT SDKS\WINDOWS\V7.0A\INCLUDE\WINVER.H
C:\PROGRAM FILES (X86)\MICROSOFT SDKS\WINDOWS\V7.0A\INCLUDE\VERRSRC.H
C:\PROGRAM FILES (X86)\MICROSOFT SDKS\WINDOWS\V7.0A\INCLUDE\WINREG.H
C:\PROGRAM FILES (X86)\MICROSOFT SDKS\WINDOWS\V7.0A\INCLUDE\REASON.H
C:\PROGRAM FILES (X86)\MICROSOFT SDKS\WINDOWS\V7.0A\INCLUDE\WINNETWK.H
C:\PROGRAM FILES (X86)\MICROSOFT SDKS\WINDOWS\V7.0A\INCLUDE\WNNC.H
C:\PROGRAM FILES (X86)\MICROSOFT SDKS\WINDOWS\V7.0A\INCLUDE\STRALIGN.H
C:\PROGRAM FILES (X86)\MICROSOFT SDKS\WINDOWS\V7.0A\INCLUDE\WINSVC.H
C:\PROGRAM FILES (X86)\MICROSOFT SDKS\WINDOWS\V7.0A\INCLUDE\MCX.H
C:\PROGRAM FILES (X86)\MICROSOFT SDKS\WINDOWS\V7.0A\INCLUDE\IMM.H
C:\PROGRAM FILES (X86)\MICROSOFT SDKS\WINDOWS\V7.0A\INCLUDE\IME_CMODES.H
C:\PROGRAM FILES (X86)\MICROSOFT SDKS\WINDOWS\V7.0A\INCLUDE\GL\GL.H
C:\PROGRAM FILES (X86)\MICROSOFT SDKS\WINDOWS\V7.0A\INCLUDE\GL\GLU.H
C:\USERS\PETER\DESKTOP\SCHOOL\BROCK UNIVERSITY\YEAR 3\SEMESTER 1\COSC 3P98 - COMPUTER GRAPHICS\ASSIGNMENT 1\TEMPLATE-3P98-2010\TEMPLATE-3P98-2010\TEMPLATE-3P98-2010\GL\FREEGLUT_EXT.H
C:\USERS\PETER\DESKTOP\SCHOOL\BROCK UNIVERSITY\YEAR 3\SEMESTER 1\COSC 3P98 - COMPUTER GRAPHICS\ASSIGNMENT 1\TEMPLATE-3P98-2010\TEMPLATE-3P98-2010\TEMPLATE-3P98-2010\FREEIMAGE\FREEIMAGE.H
C:\PROGRAM FILES (X86)\MICROSOFT VISUAL STUDIO 10.0\VC\INCLUDE\WCHAR.H
C:\PROGRAM FILES (X86)\MICROSOFT VISUAL STUDIO 10.0\VC\INCLUDE\SWPRINTF.INL
C:\PROGRAM FILES (X86)\MICROSOFT VISUAL STUDIO 10.0\VC\INCLUDE\WTIME.INL
C:\PROGRAM FILES (X86)\MICROSOFT VISUAL STUDIO 10.0\VC\INCLUDE\STDIO.H
C:\PROGRAM FILES (X86)\MICROSOFT VISUAL STUDIO 10.0\VC\INCLUDE\MALLOC.H
C:\PROGRAM FILES (X86)\MICROSOFT VISUAL STUDIO 10.0\VC\BIN\1033\CLUI.DLL
C:\WINDOWS\GLOBALIZATION\SORTING\SORTDEFAULT.NLS
C:\WINDOWS\SYSTEM32\RSAENH.DLL
C:\PROGRAM FILES (X86)\MICROSOFT VISUAL STUDIO 10.0\COMMON7\IDE\MSPDBSRV.EXE
C:\WINDOWS\SYSTEM32\TZRES.DLL
C:\PROGRAM FILES (X86)\MICROSOFT VISUAL STUDIO 10.0\VC\INCLUDE\MATH.H
^C:\USERS\PETER\DESKTOP\SCHOOL\BROCK UNIVERSITY\YEAR 3\SEMESTER 1\COSC 3P98 - COMPUTER GRAPHICS\ASSIGNMENT 1\TEMPLATE-3P98-2010\TEMPLATE-3P98-2010\TEMPLATE-3P98-2010\FILTERS.C
C:\USERS\PETER\DESKTOP\SCHOOL\BROCK UNIVERSITY\YEAR 3\SEMESTER 1\COSC 3P98 - COMPUTER GRAPHICS\ASSIGNMENT 1\TEMPLATE-3P98-2010\TEMPLATE-3P98-2010\TEMPLATE-3P98-2010\FILTERS.H
C:\PROGRAM FILES (X86)\MICROSOFT VISUAL STUDIO 10.0\VC\INCLUDE\STDIO.H
C:\PROGRAM FILES (X86)\MICROSOFT VISUAL STUDIO 10.0\VC\INCLUDE\CRTDEFS.H
C:\PROGRAM FILES (X86)\MICROSOFT VISUAL STUDIO 10.0\VC\INCLUDE\SAL.H
C:\PROGRAM FILES (X86)\MICROSOFT VISUAL STUDIO 10.0\VC\INCLUDE\CODEANALYSIS\SOURCEANNOTATIONS.H
C:\PROGRAM FILES (X86)\MICROSOFT VISUAL STUDIO 10.0\VC\INCLUDE\VADEFS.H
C:\PROGRAM FILES (X86)\MICROSOFT VISUAL STUDIO 10.0\VC\INCLUDE\SWPRINTF.INL
C:\USERS\PETER\DESKTOP\SCHOOL\BROCK UNIVERSITY\YEAR 3\SEMESTER 1\COSC 3P98 - COMPUTER GRAPHICS\ASSIGNMENT 1\TEMPLATE-3P98-2010\TEMPLATE-3P98-2010\TEMPLATE-3P98-2010\GL\FREEGLUT.H
C:\USERS\PETER\DESKTOP\SCHOOL\BROCK UNIVERSITY\YEAR 3\SEMESTER 1\COSC 3P98 - COMPUTER GRAPHICS\ASSIGNMENT 1\TEMPLATE-3P98-2010\TEMPLATE-3P98-2010\TEMPLATE-3P98-2010\GL\FREEGLUT_STD.H
C:\PROGRAM FILES (X86)\MICROSOFT SDKS\WINDOWS\V7.0A\INCLUDE\WINDOWS.H
C:\PROGRAM FILES (X86)\MICROSOFT SDKS\WINDOWS\V7.0A\INCLUDE\SDKDDKVER.H
C:\PROGRAM FILES (X86)\MICROSOFT VISUAL STUDIO 10.0\VC\INCLUDE\EXCPT.H
C:\PROGRAM FILES (X86)\MICROSOFT VISUAL STUDIO 10.0\VC\INCLUDE\STDARG.H
C:\PROGRAM FILES (X86)\MICROSOFT SDKS\WINDOWS\V7.0A\INCLUDE\WINDEF.H
C:\PROGRAM FILES (X86)\MICROSOFT SDKS\WINDOWS\V7.0A\INCLUDE\WINNT.H
C:\PROGRAM FILES (X86)\MICROSOFT VISUAL STUDIO 10.0\VC\INCLUDE\CTYPE.H
C:\PROGRAM FILES (X86)\MICROSOFT SDKS\WINDOWS\V7.0A\INCLUDE\SPECSTRINGS.H
C:\PROGRAM FILES (X86)\MICROSOFT SDKS\WINDOWS\V7.0A\INCLUDE\SAL_SUPP.H
C:\PROGRAM FILES (X86)\MICROSOFT SDKS\WINDOWS\V7.0A\INCLUDE\SPECSTRINGS_SUPP.H
C:\PROGRAM FILES (X86)\MICROSOFT SDKS\WINDOWS\V7.0A\INCLUDE\SPECSTRINGS_STRICT.H
C:\PROGRAM FILES (X86)\MICROSOFT SDKS\WINDOWS\V7.0A\INCLUDE\SPECSTRINGS_UNDEF.H
C:\PROGRAM FILES (X86)\MICROSOFT SDKS\WINDOWS\V7.0A\INCLUDE\DRIVERSPECS.H
C:\PROGRAM FILES (X86)\MICROSOFT SDKS\WINDOWS\V7.0A\INCLUDE\SDV_DRIVERSPECS.H
C:\PROGRAM FILES (X86)\MICROSOFT SDKS\WINDOWS\V7.0A\INCLUDE\KERNELSPECS.H
C:\PROGRAM FILES (X86)\MICROSOFT SDKS\WINDOWS\V7.0A\INCLUDE\BASETSD.H
C:\PROGRAM FILES (X86)\MICROSOFT SDKS\WINDOWS\V7.0A\INCLUDE\GUIDDEF.H
C:\PROGRAM FILES (X86)\MICROSOFT VISUAL STUDIO 10.0\VC\INCLUDE\STRING.H
C:\PROGRAM FILES (X86)\MICROSOFT SDKS\WINDOWS\V7.0A\INCLUDE\PSHPACK4.H
C:\PROGRAM FILES (X86)\MICROSOFT SDKS\WINDOWS\V7.0A\INCLUDE\POPPACK.H
C:\PROGRAM FILES (X86)\MICROSOFT SDKS\WINDOWS\V7.0A\INCLUDE\PSHPACK2.H
C:\PROGRAM FILES (X86)\MICROSOFT SDKS\WINDOWS\V7.0A\INCLUDE\PSHPACK8.H
C:\PROGRAM FILES (X86)\MICROSOFT SDKS\WINDOWS\V7.0A\INCLUDE\KTMTYPES.H
C:\PROGRAM FILES (X86)\MICROSOFT SDKS\WINDOWS\V7.0A\INCLUDE\WINBASE.H
C:\PROGRAM FILES (X86)\MICROSOFT SDKS\WINDOWS\V7.0A\INCLUDE\WINERROR.H
C:\PROGRAM FILES (X86)\MICROSOFT SDKS\WINDOWS\V7.0A\INCLUDE\WINGDI.H
C:\PROGRAM FILES (X86)\MICROSOFT SDKS\WINDOWS\V7.0A\INCLUDE\PSHPACK1.H
C:\PROGRAM FILES (X86)\MICROSOFT SDKS\WINDOWS\V7.0A\INCLUDE\WINUSER.H
C:\PROGRAM FILES (X86)\MICROSOFT SDKS\WINDOWS\V7.0A\INCLUDE\TVOUT.H
C:\PROGRAM FILES (X86)\MICROSOFT SDKS\WINDOWS\V7.0A\INCLUDE\WINNLS.H
C:\PROGRAM FILES (X86)\MICROSOFT SDKS\WINDOWS\V7.0A\INCLUDE\WINCON.H
C:\PROGRAM FILES (X86)\MICROSOFT SDKS\WINDOWS\V7.0A\INCLUDE\WINVER.H
C:\PROGRAM FILES (X86)\MICROSOFT SDKS\WINDOWS\V7.0A\INCLUDE\VERRSRC.H
C:\PROGRAM FILES (X86)\MICROSOFT SDKS\WINDOWS\V7.0A\INCLUDE\WINREG.H
C:\PROGRAM FILES (X86)\MICROSOFT SDKS\WINDOWS\V7.0A\INCLUDE\REASON.H
C:\PROGRAM FILES (X86)\MICROSOFT SDKS\WINDOWS\V7.0A\INCLUDE\WINNETWK.H
C:\PROGRAM FILES (X86)\MICROSOFT SDKS\WINDOWS\V7.0A\INCLUDE\WNNC.H
C:\PROGRAM FILES (X86)\MICROSOFT SDKS\WINDOWS\V7.0A\INCLUDE\STRALIGN.H
C:\PROGRAM FILES (X86)\MICROSOFT SDKS\WINDOWS\V7.0A\INCLUDE\WINSVC.H
C:\PROGRAM FILES (X86)\MICROSOFT SDKS\WINDOWS\V7.0A\INCLUDE\MCX.H
C:\PROGRAM FILES (X86)\MICROSOFT SDKS\WINDOWS\V7.0A\INCLUDE\IMM.H
C:\PROGRAM FILES (X86)\MICROSOFT SDKS\WINDOWS\V7.0A\INCLUDE\IME_CMODES.H
C:\PROGRAM FILES (X86)\MICROSOFT SDKS\WINDOWS\V7.0A\INCLUDE\GL\GL.H
C:\PROGRAM FILES (X86)\MICROSOFT SDKS\WINDOWS\V7.0A\INCLUDE\GL\GLU.H
C:\PROGRAM FILES (X86)\MICROSOFT VISUAL STUDIO 10.0\VC\INCLUDE\STDLIB.H
C:\PROGRAM FILES (X86)\MICROSOFT VISUAL STUDIO 10.0\VC\INCLUDE\LIMITS.H
C:\USERS\PETER\DESKTOP\SCHOOL\BROCK UNIVERSITY\YEAR 3\SEMESTER 1\COSC 3P98 - COMPUTER GRAPHICS\ASSIGNMENT 1\TEMPLATE-3P98-2010\TEMPLATE-3P98-2010\TEMPLATE-3P98-2010\GL\FREEGLUT_EXT.H
C:\USERS\PETER\DESKTOP\SCHOOL\BROCK UNIVERSITY\YEAR 3\SEMESTER 1\COSC 3P98 - COMPUTER GRAPHICS\ASSIGNMENT 1\TEMPLATE-3P98-2010\TEMPLATE-3P98-2010\TEMPLATE-3P98-2010\FREEIMAGE\FREEIMAGE.H
C:\PROGRAM FILES (X86)\MICROSOFT VISUAL STUDIO 10.0\VC\INCLUDE\WCHAR.H
C:\PROGRAM FILES (X86)\MICROSOFT VISUAL STUDIO 10.0\VC\INCLUDE\WTIME.INL
C:\PROGRAM FILES (X86)\MICROSOFT VISUAL STUDIO 10.0\VC\INCLUDE\MALLOC.H
