^C:\USERS\PETER\DESKTOP\SCHOOL\BROCK UNIVERSITY\YEAR 3\SEMESTER 1\COSC 3P98 - COMPUTER GRAPHICS\OPENGL\TEMPLATE-3P98-2010\TEMPLATE-3P98-2010\TEMPLATE-3P98-2010\SOURCE.C
C:\USERS\PETER\DESKTOP\SCHOOL\BROCK UNIVERSITY\YEAR 3\SEMESTER 1\COSC 3P98 - COMPUTER GRAPHICS\OPENGL\TEMPLATE-3P98-2010\TEMPLATE-3P98-2010\TEMPLATE-3P98-2010\DEBUG\SOURCE.OBJ
C:\USERS\PETER\DESKTOP\SCHOOL\BROCK UNIVERSITY\YEAR 3\SEMESTER 1\COSC 3P98 - COMPUTER GRAPHICS\OPENGL\TEMPLATE-3P98-2010\TEMPLATE-3P98-2010\TEMPLATE-3P98-2010\DEBUG\VC100.PDB
^C:\USERS\PETER\DESKTOP\SCHOOL\BROCK UNIVERSITY\YEAR 3\SEMESTER 1\COSC 3P98 - COMPUTER GRAPHICS\OPENGL\LOAD.C
C:\USERS\PETER\DESKTOP\SCHOOL\BROCK UNIVERSITY\YEAR 3\SEMESTER 1\COSC 3P98 - COMPUTER GRAPHICS\OPENGL\TEMPLATE-3P98-2010\TEMPLATE-3P98-2010\TEMPLATE-3P98-2010\DEBUG\LOAD.OBJ
C:\USERS\PETER\DESKTOP\SCHOOL\BROCK UNIVERSITY\YEAR 3\SEMESTER 1\COSC 3P98 - COMPUTER GRAPHICS\OPENGL\TEMPLATE-3P98-2010\TEMPLATE-3P98-2010\TEMPLATE-3P98-2010\DEBUG\VC100.PDB
^C:\USERS\PETER\DESKTOP\SCHOOL\BROCK UNIVERSITY\YEAR 3\SEMESTER 1\COSC 3P98 - COMPUTER GRAPHICS\OPENGL\TEMPLATE-3P98-2010\TEMPLATE-3P98-2010\TEMPLATE-3P98-2010\LOAD.C
C:\USERS\PETER\DESKTOP\SCHOOL\BROCK UNIVERSITY\YEAR 3\SEMESTER 1\COSC 3P98 - COMPUTER GRAPHICS\OPENGL\TEMPLATE-3P98-2010\TEMPLATE-3P98-2010\TEMPLATE-3P98-2010\DEBUG\LOAD.OBJ
C:\USERS\PETER\DESKTOP\SCHOOL\BROCK UNIVERSITY\YEAR 3\SEMESTER 1\COSC 3P98 - COMPUTER GRAPHICS\OPENGL\TEMPLATE-3P98-2010\TEMPLATE-3P98-2010\TEMPLATE-3P98-2010\DEBUG\VC100.PDB
^C:\USERS\PETER\DESKTOP\SCHOOL\BROCK UNIVERSITY\YEAR 3\SEMESTER 1\COSC 3P98 - COMPUTER GRAPHICS\ASSIGNMENT 1\TEMPLATE-3P98-2010\TEMPLATE-3P98-2010\TEMPLATE-3P98-2010\LOAD.C|C:\USERS\PETER\DESKTOP\SCHOOL\BROCK UNIVERSITY\YEAR 3\SEMESTER 1\COSC 3P98 - COMPUTER GRAPHICS\ASSIGNMENT 1\TEMPLATE-3P98-2010\TEMPLATE-3P98-2010\TEMPLATE-3P98-2010\SOURCE.C
C:\USERS\PETER\DESKTOP\SCHOOL\BROCK UNIVERSITY\YEAR 3\SEMESTER 1\COSC 3P98 - COMPUTER GRAPHICS\ASSIGNMENT 1\TEMPLATE-3P98-2010\TEMPLATE-3P98-2010\TEMPLATE-3P98-2010\DEBUG\LOAD.OBJ
C:\USERS\PETER\DESKTOP\SCHOOL\BROCK UNIVERSITY\YEAR 3\SEMESTER 1\COSC 3P98 - COMPUTER GRAPHICS\ASSIGNMENT 1\TEMPLATE-3P98-2010\TEMPLATE-3P98-2010\TEMPLATE-3P98-2010\DEBUG\SOURCE.OBJ
^C:\USERS\PETER\DESKTOP\SCHOOL\BROCK UNIVERSITY\YEAR 3\SEMESTER 1\COSC 3P98 - COMPUTER GRAPHICS\ASSIGNMENT 1\TEMPLATE-3P98-2010\TEMPLATE-3P98-2010\TEMPLATE-3P98-2010\LOAD.C
C:\USERS\PETER\DESKTOP\SCHOOL\BROCK UNIVERSITY\YEAR 3\SEMESTER 1\COSC 3P98 - COMPUTER GRAPHICS\ASSIGNMENT 1\TEMPLATE-3P98-2010\TEMPLATE-3P98-2010\TEMPLATE-3P98-2010\DEBUG\VC100.PDB
C:\USERS\PETER\DESKTOP\SCHOOL\BROCK UNIVERSITY\YEAR 3\SEMESTER 1\COSC 3P98 - COMPUTER GRAPHICS\ASSIGNMENT 1\TEMPLATE-3P98-2010\TEMPLATE-3P98-2010\TEMPLATE-3P98-2010\DEBUG\LOAD.OBJ
^C:\USERS\PETER\DESKTOP\SCHOOL\BROCK UNIVERSITY\YEAR 3\SEMESTER 1\COSC 3P98 - COMPUTER GRAPHICS\ASSIGNMENT 1\TEMPLATE-3P98-2010\TEMPLATE-3P98-2010\TEMPLATE-3P98-2010\SOURCE.C
C:\USERS\PETER\DESKTOP\SCHOOL\BROCK UNIVERSITY\YEAR 3\SEMESTER 1\COSC 3P98 - COMPUTER GRAPHICS\ASSIGNMENT 1\TEMPLATE-3P98-2010\TEMPLATE-3P98-2010\TEMPLATE-3P98-2010\DEBUG\VC100.PDB
^C:\USERS\PETER\DESKTOP\SCHOOL\BROCK UNIVERSITY\YEAR 3\SEMESTER 1\COSC 3P98 - COMPUTER GRAPHICS\ASSIGNMENT 1\TEMPLATE-3P98-2010\TEMPLATE-3P98-2010\TEMPLATE-3P98-2010\FILTERS.C|C:\USERS\PETER\DESKTOP\SCHOOL\BROCK UNIVERSITY\YEAR 3\SEMESTER 1\COSC 3P98 - COMPUTER GRAPHICS\ASSIGNMENT 1\TEMPLATE-3P98-2010\TEMPLATE-3P98-2010\TEMPLATE-3P98-2010\LOAD.C
^C:\USERS\PETER\DESKTOP\SCHOOL\BROCK UNIVERSITY\YEAR 3\SEMESTER 1\COSC 3P98 - COMPUTER GRAPHICS\ASSIGNMENT 1\TEMPLATE-3P98-2010\TEMPLATE-3P98-2010\TEMPLATE-3P98-2010\FILTERS.C
C:\USERS\PETER\DESKTOP\SCHOOL\BROCK UNIVERSITY\YEAR 3\SEMESTER 1\COSC 3P98 - COMPUTER GRAPHICS\ASSIGNMENT 1\TEMPLATE-3P98-2010\TEMPLATE-3P98-2010\TEMPLATE-3P98-2010\DEBUG\VC100.PDB
