^C:\USERS\PETER\DESKTOP\SCHOOL\BROCK UNIVERSITY\YEAR 3\SEMESTER 1\COSC 3P98 - COMPUTER GRAPHICS\OPENGL\TEMPLATE-3P98-2010\TEMPLATE-3P98-2010\TEMPLATE-3P98-2010\DEBUG\TEMPLATE-3P98-2010.EXE.INTERMEDIATE.MANIFEST
C:\WINDOWS\GLOBALIZATION\SORTING\SORTDEFAULT.NLS
C:\USERS\PETER\DESKTOP\SCHOOL\BROCK UNIVERSITY\YEAR 3\SEMESTER 1\COSC 3P98 - COMPUTER GRAPHICS\OPENGL\TEMPLATE-3P98-2010\TEMPLATE-3P98-2010\TEMPLATE-3P98-2010\DEBUG\TEMPLATE-3P98-2010.EXE.EMBED.MANIFEST
^C:\USERS\PETER\DESKTOP\SCHOOL\BROCK UNIVERSITY\YEAR 3\SEMESTER 1\COSC 3P98 - COMPUTER GRAPHICS\ASSIGNMENT 1\TEMPLATE-3P98-2010\TEMPLATE-3P98-2010\TEMPLATE-3P98-2010\DEBUG\TEMPLATE-3P98-2010.EXE.INTERMEDIATE.MANIFEST
C:\WINDOWS\GLOBALIZATION\SORTING\SORTDEFAULT.NLS
C:\USERS\PETER\DESKTOP\SCHOOL\BROCK UNIVERSITY\YEAR 3\SEMESTER 1\COSC 3P98 - COMPUTER GRAPHICS\ASSIGNMENT 1\TEMPLATE-3P98-2010\TEMPLATE-3P98-2010\TEMPLATE-3P98-2010\DEBUG\TEMPLATE-3P98-2010.EXE.EMBED.MANIFEST
