^C:\USERS\PETER\DESKTOP\SCHOOL\BROCK UNIVERSITY\YEAR 3\SEMESTER 1\COSC 3P98 - COMPUTER GRAPHICS\OPENGL\TEMPLATE-3P98-2010\TEMPLATE-3P98-2010\TEMPLATE-3P98-2010\TEMPLATE-3P98-2010.RC
/D _UNICODE /D UNICODE /l"0x0409" /nologo /fo"Debug\Template-3P98-2010.res" Template-3P98-2010.rc /D _UNICODE /D UNICODE /l"0x0409" /nologo /fo"Debug\Template-3P98-2010.res" C:\USERS\PETER\DESKTOP\SCHOOL\BROCK UNIVERSITY\YEAR 3\SEMESTER 1\COSC 3P98 - COMPUTER GRAPHICS\OPENGL\TEMPLATE-3P98-2010\TEMPLATE-3P98-2010\TEMPLATE-3P98-2010\TEMPLATE-3P98-2010.RC
^C:\USERS\PETER\DESKTOP\SCHOOL\BROCK UNIVERSITY\YEAR 3\SEMESTER 1\COSC 3P98 - COMPUTER GRAPHICS\OPENGL\TEMPLATE-3P98-2010\TEMPLATE-3P98-2010\TEMPLATE-3P98-2010\DEBUG\TEMPLATE-3P98-2010_MANIFEST.RC
/nologo /fo"Debug\Template-3P98-2010.exe.embed.manifest.res" Debug\Template-3P98-2010_manifest.rc /nologo /fo"Debug\Template-3P98-2010.exe.embed.manifest.res" C:\USERS\PETER\DESKTOP\SCHOOL\BROCK UNIVERSITY\YEAR 3\SEMESTER 1\COSC 3P98 - COMPUTER GRAPHICS\OPENGL\TEMPLATE-3P98-2010\TEMPLATE-3P98-2010\TEMPLATE-3P98-2010\DEBUG\TEMPLATE-3P98-2010_MANIFEST.RC
^C:\USERS\PETER\DESKTOP\SCHOOL\BROCK UNIVERSITY\YEAR 3\SEMESTER 1\COSC 3P98 - COMPUTER GRAPHICS\ASSIGNMENT 1\TEMPLATE-3P98-2010\TEMPLATE-3P98-2010\TEMPLATE-3P98-2010\TEMPLATE-3P98-2010.RC
/D _UNICODE /D UNICODE /l"0x0409" /nologo /fo"Debug\Template-3P98-2010.res" Template-3P98-2010.rc /D _UNICODE /D UNICODE /l"0x0409" /nologo /fo"Debug\Template-3P98-2010.res" C:\USERS\PETER\DESKTOP\SCHOOL\BROCK UNIVERSITY\YEAR 3\SEMESTER 1\COSC 3P98 - COMPUTER GRAPHICS\ASSIGNMENT 1\TEMPLATE-3P98-2010\TEMPLATE-3P98-2010\TEMPLATE-3P98-2010\TEMPLATE-3P98-2010.RC
^C:\USERS\PETER\DESKTOP\SCHOOL\BROCK UNIVERSITY\YEAR 3\SEMESTER 1\COSC 3P98 - COMPUTER GRAPHICS\ASSIGNMENT 1\TEMPLATE-3P98-2010\TEMPLATE-3P98-2010\TEMPLATE-3P98-2010\DEBUG\TEMPLATE-3P98-2010_MANIFEST.RC
/nologo /fo"Debug\Template-3P98-2010.exe.embed.manifest.res" Debug\Template-3P98-2010_manifest.rc /nologo /fo"Debug\Template-3P98-2010.exe.embed.manifest.res" C:\USERS\PETER\DESKTOP\SCHOOL\BROCK UNIVERSITY\YEAR 3\SEMESTER 1\COSC 3P98 - COMPUTER GRAPHICS\ASSIGNMENT 1\TEMPLATE-3P98-2010\TEMPLATE-3P98-2010\TEMPLATE-3P98-2010\DEBUG\TEMPLATE-3P98-2010_MANIFEST.RC
